…
  summarize(across(ends_with("in_prior_year"), ~ sum(.x))) %>%
  # Convert the wide table into a longer one, with one row per risk factor.
  pivot_longer(
    cols = everything(),
    names_to = "in_prior_year",
    names_pattern = "(.*)_in_prior_year",
    values_to = "count"
    ) %>% 
  # Create a percentage column.
  mutate(percentage = count / nrow(patient_risk_clean) * 100) %>% 
  # Sort in descending order by the number of times a risk factor occurs.
  arrange(desc(count))
```

    # A tibble: 64 × 3
       in_prior_year                   count percentage
       <chr>                           <dbl>      <dbl>
     1 heart_failure                      23       25.3
     2 gastroesophageal_reflux_disease    19       20.9
     3 inflammatory_bowel_disease         19       20.9
     4 psychotic_disorder                 19       20.9
     5 atrial_fibrillation_incident       18       19.8
     6 heart_valve_disorder               18       19.8
     7 low_back_pain                      18       19.8
     8 occurrence_of_neuropathy           18       19.8
     9 peripheral_vascular_disease        18       19.8
    10 seizure                            18       19.8
    # ℹ 54 more rows
…
