…
### Country

Let’s look at country now.

``` r
survey %>% 
  count(country, sort = TRUE)
```

    ## # A tibble: 294 x 2
    ##    country                      n
    ##    <chr>                    <int>
    ##  1 United States             9010
    ##  2 USA                       7918
    ##  3 US                        2485
    ##  4 Canada                    1543
    ##  5 United Kingdom             584
    ##  6 UK                         579
    ##  7 U.S.                       569
    ##  8 United States of America   425
    ##  9 Usa                        420
    ## 10 Australia                  368
    ## # … with 284 more rows
…
``` r
  # Returns non-USD entries

survey_clean %>%
  select(annual_salary, currency, currency_other) %>%
  filter(currency == "Other" & is.na(currency_other) == FALSE)
```

    ## # A tibble: 129 x 3
    ##    annual_salary currency currency_other
    ##            <dbl> <chr>    <chr>         
    ##  1        885000 Other    INR           
    ##  2       1080000 Other    Peso Argentino
    ##  3         80640 Other    MYR           
    ##  4         60000 Other    CHF           
    ##  5        800000 Other    NOK           
    ##  6        669500 Other    NOK           
    ##  7         48068 Other    USD           
    ##  8        156000 Other    BR$           
    ##  9        318000 Other    SEK           
    ## 10       1400000 Other    Dkk           
    ## # … with 119 more rows

``` r
  # Returns entries where the currency was "Other", so hopefully there's something in the "Other" field to mutate across.

survey_clean %>%
  select(annual_salary, currency, currency_other) %>%
  filter(currency == "USD" & is.na(currency_other) == FALSE)
```

    ## # A tibble: 25 x 3
    ##    annual_salary currency currency_other                                        
    ##            <dbl> <chr>    <chr>                                                 
    ##  1         76302 USD      $76,302.34                                            
    ##  2         64000 USD      My bonus is based on performance up to 10% of salary  
    ##  3         53000 USD      I work for an online state university, managing admis…
    ##  4         53500 USD      0                                                     
    ##  5        120000 USD      N/A                                                   
    ##  6         13560 USD      KWD                                                   
    ##  7         50000 USD      Na                                                    
    ##  8        100000 USD      N/A                                                   
    ##  9         33000 USD      Base plus Commission                                  
    ## 10     102000000 USD      COP                                                   
    ## # … with 15 more rows
…
