…
``` r
house_vis |>
  filter(year == 1980) |>
  summarize(mean_pct_vote = mean(pct_vote) * 100)
```

    `summarise()` has grouped output by 'year', 'district'. You can override using
    the `.groups` argument.

    # A tibble: 49 × 4
    # Groups:   year, district [24]
        year district party      mean_pct_vote
       <dbl> <chr>    <fct>              <dbl>
     1  1980 001      Democrat           95.5 
     2  1980 001      Republican          4.52
     3  1980 002      Democrat           88.1 
     4  1980 002      Republican         11.8 
     5  1980 003      Democrat           68.9 
     6  1980 003      Republican         31.1 
     7  1980 004      Democrat           32.0 
     8  1980 004      Republican         68.0 
     9  1980 005      Democrat           79.6 
    10  1980 005      Republican         20.4 
    # ℹ 39 more rows
…
