…
Appear to have lost 36320 rows in importing the stock data. Still have
56232 rows. Though 39% loss seems like a lot.

On a quick inspection using problems() …

``` r
problems(stocked_raw)
```

    ## # A tibble: 36,320 x 5
    ##      row col    expected      actual file                                       
    ##    <int> <chr>  <chr>         <chr>  <chr>                                      
    ##  1  4367 TAG_NO 1/0/T/F/TRUE… 604101 'https://raw.githubusercontent.com/rfordat…
    ##  2  4368 TAG_NO 1/0/T/F/TRUE… 604101 'https://raw.githubusercontent.com/rfordat…
    ##  3  4369 TAG_NO 1/0/T/F/TRUE… 604101 'https://raw.githubusercontent.com/rfordat…
    ##  4  4370 TAG_NO 1/0/T/F/TRUE… 604103 'https://raw.githubusercontent.com/rfordat…
    ##  5  4371 TAG_NO 1/0/T/F/TRUE… 604102 'https://raw.githubusercontent.com/rfordat…
    ##  6  4372 TAG_NO 1/0/T/F/TRUE… 604102 'https://raw.githubusercontent.com/rfordat…
    ##  7  4373 TAG_NO 1/0/T/F/TRUE… 604102 'https://raw.githubusercontent.com/rfordat…
    ##  8  4374 TAG_NO 1/0/T/F/TRUE… 604105 'https://raw.githubusercontent.com/rfordat…
    ##  9  4375 TAG_NO 1/0/T/F/TRUE… 604101 'https://raw.githubusercontent.com/rfordat…
    ## 10  4376 TAG_NO 1/0/T/F/TRUE… 604104 'https://raw.githubusercontent.com/rfordat…
    ## # … with 36,310 more rows
…
No problems ! Here’s a list of the column types … SID, d YEAR, d MONTH,
d DAY, d LAKE, f STATE\_PROV, f SITE, c ST\_SITE, c LATITUDE, d
LONGITUDE, d GRID, d STAT\_DIST, c LS\_MGMT, c SPECIES, c STRAIN, c
NO\_STOCKED, d YEAR\_CLASS, d STAGE, c AGEMONTH, d MARK, c MARK\_EFF, c
TAG\_NO, c TAG\_RET, d to c LENGTH, d WEIGHT, d to c CONDITION, d
LOT\_CODE, c STOCK\_METH, c AGENCY, c VALIDATION, d NOTES, c

## Create a date field (where possible)

``` r
stocked_raw %>%
  mutate(DATE = make_date(YEAR, MONTH, DAY))
```

    ## # A tibble: 56,232 x 32
    ##      SID  YEAR MONTH   DAY LAKE  STATE_PROV SITE     ST_SITE  LATITUDE LONGITUDE
    ##    <dbl> <dbl> <dbl> <dbl> <fct> <fct>      <chr>    <chr>       <dbl>     <dbl>
    ##  1     1  1950    NA    NA MI    ON         PIE ISL… PIE            NA        NA
    ##  2     2  1952     4    29 SU    WI         APOSTLE… APOSTLE        NA        NA
    ##  3     3  1952     9    23 SU    WI         APOSTLE… APOSTLE        NA        NA
    ##  4     4  1952    NA    NA SU    MI         LAUGHIN… LAUGHIN…       NA        NA
    ##  5     5  1953     5    27 SU    WI         APOSTLE… APOSTLE        NA        NA
    ##  6     6  1953    10    10 SU    WI         APOSTLE… APOSTLE        NA        NA
    ##  7     7  1953    NA    NA SU    MI         LAUGHIN… LAUGHIN…       NA        NA
    ##  8     8  1953    NA    NA SU    MI         MARQUET… MARQUET…       NA        NA
    ##  9     9  1953    NA    NA SU    ON         PIE ISL… PIE            NA        NA
    ## 10    10  1954     6     8 SU    WI         APOSTLE… APOSTLE        NA        NA
    ## # … with 56,222 more rows, and 22 more variables: GRID <dbl>, STAT_DIST <chr>,
    ## #   LS_MGMT <chr>, SPECIES <chr>, STRAIN <chr>, NO_STOCKED <dbl>,
    ## #   YEAR_CLASS <dbl>, STAGE <chr>, AGEMONTH <dbl>, MARK <chr>, MARK_EFF <chr>,
    ## #   TAG_NO <chr>, TAG_RET <chr>, LENGTH <dbl>, WEIGHT <chr>, CONDITION <dbl>,
    ## #   LOT_CODE <chr>, STOCK_METH <chr>, AGENCY <chr>, VALIDATION <dbl>,
    ## #   NOTES <chr>, DATE <date>
…
