…
## Exploratory Data Analysis

### Question 1: How has the number of CEO departures per year changed over time?

``` r
departures_per_year <- departures_tidy %>%
  group_by(fyear) %>%
  summarise(count = n(), percent = round(count / 1500 * 100, digits = 1)) %>%
  arrange(desc(fyear))
departures_per_year
```

    ## # A tibble: 26 × 3
    ##    fyear count percent
    ##    <dbl> <int>   <dbl>
    ##  1  2018   826    55.1
    ##  2  2017   963    64.2
    ##  3  2016   317    21.1
    ##  4  2015   324    21.6
    ##  5  2014   313    20.9
    ##  6  2013   262    17.5
    ##  7  2012   288    19.2
    ##  8  2011   298    19.9
    ##  9  2010   300    20  
    ## 10  2009   250    16.7
    ## # … with 16 more rows
…
    ##    Min. 1st Qu.  Median    Mean 3rd Qu.    Max. 
    ##   1.000   1.000   1.000   1.081   1.000   4.000

``` r
top_departures_by_ceo <- departures_by_ceo %>%
  top_n(n = 10, wt = count)
top_departures_by_ceo
```

    ## # A tibble: 53 × 2
    ##    exec_fullname              count
    ##    <chr>                      <int>
    ##  1 Constantine S. Macricostas     4
    ##  2 Edward D. Breen                4
    ##  3 John W. Rowe                   4
    ##  4 Mark Vincent Hurd              4
    ##  5 Mel Karmazin                   4
    ##  6 Albert L. Lord                 3
    ##  7 Amin J. Khoury                 3
    ##  8 Dale W. Hilpert                3
    ##  9 Daniel Francis Akerson         3
    ## 10 David Allen Brandon            3
    ## # … with 43 more rows
…
While 1471 departures are identified as being dismissals (above), there
are 1302 + 195 = 1497 with a departure reason that indicates the ceo was
dismissed.

``` r
departures_tidy %>%
  filter (departure_code %in% c(3, 4) & ceo_dismissal != 1)
```

    ## # A tibble: 26 × 19
    ##    dismissal_datase… coname  gvkey fyear co_per_rol exec_fullname departure_code
    ##                <dbl> <chr>   <dbl> <dbl>      <dbl> <chr>                  <dbl>
    ##  1               306 AUTOMA…  1891  2011        231 Gary C. Butl…              4
    ##  2              1553 GRACE …  5250  1994       1055 J. P. Bolduc               4
    ##  3              3440 TEXACO… 10482  2000       2167 Peter I. Bij…              4
    ##  4              1983 KEANE …  6362  2005      12566 Brian T. Kea…              4
    ##  5               492 BOEING…  2285  2004      14087 Harry C. Sto…              4
    ##  6              7382 MAXIMU… 64901  2006      18125 Lynn P. Dave…              4
    ##  7              7047 CARBO … 62686  2005      22857 C. Mark Pear…              4
    ##  8              3299 STRYKE… 10115  2011      26675 Stephen P. M…              4
    ##  9              4459 CBS CO… 13714  2018      29214 Leslie Moonv…              4
    ## 10               441 BEST B…  2184  2011      29475 Brian J. Dunn              4
    ## # … with 16 more rows, and 12 more variables: ceo_dismissal <dbl>,
    ## #   interim_coceo <chr>, tenure_no_ceodb <dbl>, max_tenure_ceodb <dbl>,
    ## #   fyear_gone <dbl>, leftofc <dttm>, still_there <chr>, notes <chr>,
    ## #   sources <chr>, eight_ks <chr>, cik <dbl>, _merge <chr>

These 26 entries should probably have their ceo\_dismissal value changed
to ‘0’ from ‘1.’ If this is done, then the total number of dismissals
matches with the number of departures with a dismissal reason (1471 + 26
= 1497). <!-- How to do this? dplyr's rows_update() is impenetrable. -->

``` r
top_departures_by_ceo %>%
  select(exec_fullname) %>%
  inner_join(departures_tidy, by = "exec_fullname") %>%
  select (exec_fullname, coname, fyear, departure_code, notes) %>%
  arrange(exec_fullname, desc(fyear))
```

    ## # A tibble: 164 × 5
    ##    exec_fullname              coname            fyear departure_code notes      
    ##    <chr>                      <chr>             <dbl>          <dbl> <chr>      
    ##  1 Albert L. Lord             SLM CORP           2013              5 "\"Sallie …
    ##  2 Albert L. Lord             NAVIENT CORP       2008              5 "Sallie Ma…
    ##  3 Albert L. Lord             NAVIENT CORP       2004              5 "Albert Lo…
    ##  4 Amin J. Khoury             KLX INC            2017              7 "On Octobe…
    ##  5 Amin J. Khoury             B/E AEROSPACE INC  2014              5 "WELLINGTO…
    ##  6 Amin J. Khoury             B/E AEROSPACE INC  1995              5 "Amin J. K…
    ##  7 Constantine S. Macricostas PHOTRONICS INC     2015              7 "Constanti…
    ##  8 Constantine S. Macricostas PHOTRONICS INC     2005              7 "Constanti…
    ##  9 Constantine S. Macricostas PHOTRONICS INC     2001              9 "Execucomp…
    ## 10 Constantine S. Macricostas PHOTRONICS INC     1997              5 "Constanti…
    ## # … with 154 more rows

### Question 6: What happened in 2017 and 2018?

``` r
departures_tidy %>%
  filter(fyear %in% c(2017, 2018))
```

    ## # A tibble: 1,789 × 19
    ##    dismissal_datase… coname  gvkey fyear co_per_rol exec_fullname departure_code
    ##                <dbl> <chr>   <dbl> <dbl>      <dbl> <chr>                  <dbl>
    ##  1               145 AMERIC…  1447  2017        111 Kenneth I. C…              5
    ##  2               854 COMCAS…  3226  2017        581 Brian L. Rob…             NA
    ##  3              1085 DILLAR…  3964  2017        754 William T. D…             NA
    ##  4              2081 L BRAN…  6733  2017       1329 Leslie H. We…             NA
    ##  5              2510 NIKE I…  7906  2018       1623 Mark G. Park…              5
    ##  6              2524 NACCO …  7938  2017       1638 Alfred Marsh…              5
    ##  7              3857 WORTHI… 11600  2018       2414 John P. McCo…              5
    ##  8               712 CENTUR…  2884  2017       2865 Glen F. Post…              5
    ##  9              1772 VECTRE…  5918  2017       3320 Carl L. Chap…              7
    ## 10              2043 LANCAS…  6573  2017       3396 John B. Gerl…              5
    ## # … with 1,779 more rows, and 12 more variables: ceo_dismissal <dbl>,
    ## #   interim_coceo <chr>, tenure_no_ceodb <dbl>, max_tenure_ceodb <dbl>,
    ## #   fyear_gone <dbl>, leftofc <dttm>, still_there <chr>, notes <chr>,
    ## #   sources <chr>, eight_ks <chr>, cik <dbl>, _merge <chr>
…
