…
``` r
lemurs %>%
  mutate(year = lubridate::year(dob)) %>%
  filter(year != 1946 & !is.na(year) == TRUE) %>%
  group_by(year) %>%
  summarise(births_by_year = n()) %>%
  arrange(year)
```

    ## # A tibble: 61 × 2
    ##     year births_by_year
    ##    <dbl>          <int>
    ##  1  1958             14
    ##  2  1959             53
    ##  3  1960             31
    ##  4  1961              7
    ##  5  1962              5
    ##  6  1963              5
    ##  7  1964             12
    ##  8  1965             79
    ##  9  1966            114
    ## 10  1967              8
    ## # … with 51 more rows
…
    ## `summarise()` has grouped output by 'dlc_id', 'age_at_death', 'sex'. You can override using the `.groups` argument.

``` r
ages_at_death
```

    ## # A tibble: 1,364 × 5
    ## # Groups:   dlc_id, age_at_death, sex [1,364]
    ##    dlc_id age_at_death              sex   birth_institution total_lemurs
    ##    <chr>  <Duration>                <chr> <chr>                    <int>
    ##  1 0005   487728000s (~15.46 years) M     Duke Lemur Center            1
    ##  2 0006   428544000s (~13.58 years) F     Duke Lemur Center            1
    ##  3 0009   327369600s (~10.37 years) M     Duke Lemur Center            1
    ##  4 0010   424569600s (~13.45 years) M     Duke Lemur Center            1
    ##  5 0026   52531200s (~1.66 years)   M     Duke Lemur Center            1
    ##  6 0028   21600000s (~35.71 weeks)  F     Duke Lemur Center            1
    ##  7 0201   357696000s (~11.33 years) F     Unknown Location             1
    ##  8 0259   313632000s (~9.94 years)  M     Unknown Location             1
    ##  9 0270   25488000s (~42.14 weeks)  F     Duke Lemur Center            1
    ## 10 0277   114134400s (~3.62 years)  M     Duke Lemur Center            1
    ## # … with 1,354 more rows
…
``` r
clean_lemurs %>%
  select(name, sex, age_at_death)
```

    ## # A tibble: 1,434 × 3
    ##    name      sex   age_at_death             
    ##    <chr>     <fct> <Duration>               
    ##  1 KANGA     M     487728000s (~15.46 years)
    ##  2 ROO       F     428544000s (~13.58 years)
    ##  3 POOH BEAR M     327369600s (~10.37 years)
    ##  4 EEYORE    M     424569600s (~13.45 years)
    ##  5 BARNABY   M     52531200s (~1.66 years)  
    ##  6 TOOTSIE   F     21600000s (~35.71 weeks) 
    ##  7 MRS. NOAH F     357696000s (~11.33 years)
    ##  8 LEADBELLY M     313632000s (~9.94 years) 
    ##  9 LILLO     F     25488000s (~42.14 weeks) 
    ## 10 CARLOS    M     114134400s (~3.62 years) 
    ## # … with 1,424 more rows
…
``` r
lemurs %>%
  arrange(desc(weight_g)) %>% 
  slice_head(n = 1000) %>%
  distinct(dlc_id, name, .keep_all = TRUE) %>%
  select(name, weight_date, weight_g, taxon) %>%
  inner_join(taxonomy, by = c("taxon"))
```

    ## # A tibble: 74 × 6
    ##    name            weight_date weight_g taxon latin_name       common_name      
    ##    <chr>           <date>         <dbl> <chr> <chr>            <chr>            
    ##  1 SABINA          1991-09-30     10337 PCOQ  Propithecus coq… Coquerel's sifaka
    ##  2 Pompeia Plotina 2019-01-29      6180 PCOQ  Propithecus coq… Coquerel's sifaka
    ##  3 Kizzy           2008-09-25      6145 VVV   Varecia variega… Black-and-white …
    ##  4 MARCELLA        1991-07-11      6136 PCOQ  Propithecus coq… Coquerel's sifaka
    ##  5 Rodelinda       2019-01-19      6080 PCOQ  Propithecus coq… Coquerel's sifaka
    ##  6 OCTAVIA         1988-06-17      5902 PCOQ  Propithecus coq… Coquerel's sifaka
    ##  7 CASTOR          1996-09-15      5700 VRUB  Varecia rubra    Red ruffed lemur 
    ##  8 Antonia         2002-08-22      5700 PCOQ  Propithecus coq… Coquerel's sifaka
    ##  9 MOON            1993-04-07      5620 VVV   Varecia variega… Black-and-white …
    ## 10 CLOTHO          1985-04-12      5584 VVV   Varecia variega… Black-and-white …
    ## # … with 64 more rows
…
