…
## How many tweeters?

``` r
tweets %>%
  count(username, sort = TRUE)
```

    ## # A tibble: 167 x 2
    ##    username            n
    ##    <chr>           <int>
    ##  1 AlDatavizguy      125
    ##  2 sqlsekou           32
    ##  3 ajstarks           30
    ##  4 CharlieEatonPhD    15
    ##  5 AsjadNaqvi         11
    ##  6 AdamMico1          10
    ##  7 DocKevinElder      10
    ##  8 manup4             10
    ##  9 lukestanke          8
    ## 10 Jasonforrestftw     7
    ## # … with 157 more rows
…
